{
	"appId": "com.reavertechnologies.zuulmaster",
	"appName": "Zuul Systems",
	"webDir": "www",
	"bundledWebRuntime": false,
	"plugins": {
		"PushNotifications": {
			"presentationOptions": [
				"alert",
				"badge",
				"sound"
			]
		}
	},
	"cordova": {
		"preferences": {
			"CameraUsesGeolocation": "false",
			"ScrollEnabled": "false",
			"BackupWebStorage": "none",
			"SplashMaintainAspectRatio": "true",
			"FadeSplashScreenDuration": "300",
			"SplashShowOnlyFirstTime": "false",
			"SplashScreen": "screen",
			"SplashScreenDelay": "500"
		}
	}
}
